^E:\GIT\CPP\C++ UNIVER\LAB 6\LAB6\CONSOLEAPPLICATION1\CONSOLEAPPLICATION1.CPP
E:\GIT\CPP\C++ UNIVER\LAB 6\LAB6\CONSOLEAPPLICATION1\X64\DEBUG\VC142.PDB
E:\GIT\CPP\C++ UNIVER\LAB 6\LAB6\CONSOLEAPPLICATION1\X64\DEBUG\VC142.IDB
E:\GIT\CPP\C++ UNIVER\LAB 6\LAB6\CONSOLEAPPLICATION1\X64\DEBUG\CONSOLEAPPLICATION1.OBJ
