^E:\GIT\LEARN_CPP\C++ UNIVER\LAB 7\LABA7\LABA7\LABA7.CPP
E:\GIT\LEARN_CPP\C++ UNIVER\LAB 7\LABA7\LABA7\DEBUG\VC142.PDB
E:\GIT\LEARN_CPP\C++ UNIVER\LAB 7\LABA7\LABA7\DEBUG\VC142.IDB
E:\GIT\LEARN_CPP\C++ UNIVER\LAB 7\LABA7\LABA7\DEBUG\LABA7.OBJ
