^E:\GIT\CPP\C++ UNIVER\LAB1\LAB-1-2\LAB-1-2\LAB-1-2\TRAIN.CPP
E:\GIT\CPP\C++ UNIVER\LAB1\LAB-1-2\LAB-1-2\LAB-1-2\X64\DEBUG\VC142.PDB
E:\GIT\CPP\C++ UNIVER\LAB1\LAB-1-2\LAB-1-2\LAB-1-2\X64\DEBUG\VC142.IDB
E:\GIT\CPP\C++ UNIVER\LAB1\LAB-1-2\LAB-1-2\LAB-1-2\X64\DEBUG\TRAIN.OBJ
